…
``` r

print(tabla_final)
#> # A tibble: 35 × 12
#>    Ensayos Exitos `p=0.05` `p=0.10` `p=0.20` `p=0.30`
#>      <dbl>  <int>    <dbl>    <dbl>    <dbl>    <dbl>
#>  1       2      0    0.902    0.810    0.64     0.49 
#>  2       2      1    0.998    0.99     0.96     0.91 
#>  3       2      2    1        1        1        1    
#>  4       3      0    0.857    0.729    0.512    0.343
#>  5       3      1    0.993    0.972    0.896    0.784
#>  6       3      2    1.000    0.999    0.992    0.973
#>  7       3      3    1        1        1        1    
#>  8       4      0    0.815    0.656    0.410    0.240
#>  9       4      1    0.986    0.948    0.819    0.652
#> 10       4      2    1.000    0.996    0.973    0.916
#> # ℹ 25 more rows
#> # ℹ 6 more variables: `p=0.40` <dbl>, `p=0.50` <dbl>,
#> #   `p=0.60` <dbl>, `p=0.70` <dbl>, `p=0.80` <dbl>,
#> #   `p=0.90` <dbl>
```
